ETW2001 Asg 1
…
avg_shipping_by_country <- orders_country_filtered %>%
  group_by(Country) %>%
  summarise(avg_shipping_cost = mean(Shipping.Cost))

avg_shipping_by_country

# A tibble: 43 × 2
   Country                          avg_shipping_cost
   <chr>                                        <dbl>
 1 Argentina                                     16.3
 2 Australia                                     35.4
 3 Austria                                       29.3
 4 Brazil                                        23.9
 5 Canada                                        19.3
 6 China                                         42.0
 7 Colombia                                      26.1
 8 Cuba                                          23.2
 9 Democratic Republic of the Congo              26.2
10 Dominican Republic                            19.7
# ℹ 33 more rows
…
overall_median_profit <- median(orders_dt$Profit)
overall_median_profit

[1] 9.24

market_year_count <- count(orders_positive_sales, Market, Year)
market_year_count

# A tibble: 28 × 3
   Market  Year     n
   <chr>  <dbl> <int>
 1 APAC    2011  1941
 2 APAC    2012  2375
 3 APAC    2013  2890
 4 APAC    2014  3796
 5 Africa  2011   787
 6 Africa  2012   882
 7 Africa  2013  1294
 8 Africa  2014  1624
 9 Canada  2011    62
10 Canada  2012    89
# ℹ 18 more rows
market_year_avg_profit <- orders_positive_sales %>%
  group_by(Market, Year) %>%
  summarise(avg_profit_per_order = mean(Profit)) %>%
  ungroup()

`summarise()` has regrouped the output.
ℹ Summaries were computed grouped by Market and Year.
ℹ Output is grouped by Market.
ℹ Use `summarise(.groups = "drop_last")` to silence this message.
ℹ Use `summarise(.by = c(Market, Year))` for per-operation grouping
  (`?dplyr::dplyr_by`) instead.

market_year_avg_profit

# A tibble: 28 × 3
   Market  Year avg_profit_per_order
   <chr>  <dbl>                <dbl>
 1 APAC    2011                 42.8
 2 APAC    2012                 37.6
 3 APAC    2013                 42.6
 4 APAC    2014                 37.0
 5 Africa  2011                 13.9
 6 Africa  2012                 13.5
 7 Africa  2013                 20.6
 8 Africa  2014                 24.2
 9 Canada  2011                 29.1
10 Canada  2012                 54.9
# ℹ 18 more rows
…
